Features Engineering
…
Reformat the data.frame into a tsibble object:

ts_obj <- us_gas |>
    dplyr::select(date, area_name, process, value) |>
    dplyr::mutate(index = tsibble::yearmonth(date)) |>
    tsibble::as_tsibble(index = index, key = c(area_name, process))

ts_obj

# A tsibble: 100,583 x 5 [1M]
# Key:       area_name, process [314]
   date       area_name process value    index
   <date>     <chr>     <chr>   <int>    <mth>
 1 1989-01-01 Alabama   VCS      3434 1989 Jan
 2 1989-02-01 Alabama   VCS      3514 1989 Feb
 3 1989-03-01 Alabama   VCS      3395 1989 Mar
 4 1989-04-01 Alabama   VCS      2369 1989 Apr
 5 1989-05-01 Alabama   VCS      1720 1989 May
 6 1989-06-01 Alabama   VCS      1215 1989 Jun
 7 1989-07-01 Alabama   VCS      1673 1989 Jul
 8 1989-08-01 Alabama   VCS      1117 1989 Aug
 9 1989-09-01 Alabama   VCS      1189 1989 Sep
10 1989-10-01 Alabama   VCS      1382 1989 Oct
# ℹ 100,573 more rows
…
